C:\springdev\workspace\SpringGetPostProject\src\main\java\com\sist\r\MovieVO.java
C:\springdev\workspace\SpringGetPostProject\src\main\java\com\sist\r\MovieDAO.java
C:\springdev\workspace\SpringGetPostProject\src\main\java\com\sist\dao\EmpVO.java
C:\springdev\workspace\SpringGetPostProject\src\main\java\com\sist\dao\DeptVO.java
C:\springdev\workspace\SpringGetPostProject\src\main\java\com\sist\dao\EmpDAO.java
C:\springdev\workspace\SpringGetPostProject\src\main\java\com\sist\getpost\EmpController.java
C:\springdev\workspace\SpringGetPostProject\src\main\java\com\sist\dao\EmpMapper.java
C:\springdev\workspace\SpringGetPostProject\src\main\java\com\sist\r\MovieManager.java
